<svg xmlns="http://www.w3.org/2000/svg" width="8192" height="6224" viewBox="0 0 8192 6224">
  <defs>
    <style>
      .cls-1, .cls-2 {
        fill: #fff;
        fill-rule: evenodd;
      }

      .cls-2 {
        stroke: #fff;
        stroke-width: 1px;
      }
    </style>
  </defs>
  <path class="cls-1" d="M4096.5,1688c643.69,0,1165.5,522.48,1165.5,1167S4740.19,4022,4096.5,4022,2931,3499.52,2931,2855,3452.81,1688,4096.5,1688Zm0.5,318c468.89,0,849,380.11,849,849s-380.11,849-849,849-849-380.11-849-849S3628.11,2006,4097,2006Z"/>
  <path class="cls-2" d="M5166,1566l364-364s73.14-50.15,125-31,99.14,19.85,128,125-126,225-126,225l-256,255s-75.5,63.35-154,37-100-94-100-94S5114.5,1646.5,5166,1566Zm0,0,364-364s73.14-50.15,125-31,99.14,19.85,128,125-126,225-126,225l-256,255s-75.5,63.35-154,37-100-94-100-94S5114.5,1646.5,5166,1566Z"/>
  <path id="Shape_1_copy" data-name="Shape 1 copy" class="cls-2" d="M5166,1566l364-364s73.14-50.15,125-31,99.14,19.85,128,125-126,225-126,225l-256,255s-75.5,63.35-154,37-100-94-100-94S5114.5,1646.5,5166,1566Zm601.64,1127.15,515,0.87s87.18,16.4,110.25,66.68,55.95,84.27,1.84,178.98-248.42,69.62-248.42,69.62l-361.48-1.32s-98.21-8.76-134.99-82.99-4.02-137.25-4.02-137.25S5674.23,2713.51,5767.64,2693.15Z"/>
  <path id="Shape_1_copy_2" data-name="Shape 1 copy 2" class="cls-2" d="M5385,3914.26l363.55,364.47s50.06,73.2,30.83,125.02-20,99.1-125.21,127.81-224.87-126.31-224.87-126.31l-254.68-256.33s-63.25-75.58-36.79-154.03,94.17-99.85,94.17-99.85S5304.56,3862.65,5385,3914.26ZM4256.75,4514.19l-1.6,514.92s-16.54,87.15-66.86,110.14-84.36,55.82-179.01,1.58S3940,4892.35,3940,4892.35l1.84-361.43s8.9-98.18,83.2-134.85,137.28-3.82,137.28-3.82S4236.53,4420.76,4256.75,4514.19Z"/>
  <path id="Shape_1_copy_3" data-name="Shape 1 copy 3" class="cls-2" d="M3025.35,4137.7l-366.61,361.34s-73.48,49.61-125.18,30.06-98.94-20.61-127-126S2534.21,4179,2534.21,4179l257.82-253.12s75.95-62.8,154.22-35.85,99.25,94.78,99.25,94.78S3077.43,4057.58,3025.35,4137.7ZM2432.49,3005.72l-514.77-4.76s-87.03-17.07-109.7-67.53-55.3-84.71-.49-179.04,248.84-67.75,248.84-67.75l361.33,4.05s98.1,9.51,134.3,84.04,2.98,137.3,2.98,137.3S2526.02,2986.07,2432.49,3005.72Z"/>
  <path id="Shape_1_copy_4" data-name="Shape 1 copy 4" class="cls-2" d="M2823.59,1800.57l-367.66-360.25s-50.89-72.61-32.26-124.66,18.85-99.31,123.71-129.23,226.26,123.71,226.26,123.71l257.57,253.37s64.11,74.84,38.56,153.59-92.99,100.93-92.99,100.93S2904.61,1851.25,2823.59,1800.57ZM3944.64,1187.7l-4.33-514.891s15.52-87.334,65.56-110.9,83.7-56.792,178.96-3.644,72.12,247.656,72.12,247.656l2.33,361.418s-7.77,98.28-81.63,135.79-137.2,5.41-137.2,5.41S3965.94,1280.89,3944.64,1187.7Z"/>
</svg>
